JobOptionsSvc        INFO # =======> /home/marco/Devel/workspace/Gaudi/GaudiExamples/options/Histograms.opts
JobOptionsSvc        INFO # (5,1): AuditorSvc.Auditors = ["ChronoAuditor"]
JobOptionsSvc        INFO # (9,1): MessageSvc.OutputLevel = 3
JobOptionsSvc        INFO # (20,1): ApplicationMgr.TopAlg += ["GaudiHistoAlgorithm/SimpleHistos"]
JobOptionsSvc        INFO # (21,1): ApplicationMgr.TopAlg += ["Gaudi::Examples::R7::GaudiHistoAlgorithm/SimpleR7Histos"]
JobOptionsSvc        INFO # (22,1): ApplicationMgr.TopAlg += ["Gaudi::Examples::Boost::GaudiHistoAlgorithm/SimpleBoostHistos"]
JobOptionsSvc        INFO # (24,1): ApplicationMgr.TopAlg += ["Gaudi::Examples::HistoProps/Histos2"]
JobOptionsSvc        INFO # (25,1): SimpleHistos.HistoPrint = 1
JobOptionsSvc        INFO # (26,1): SimpleHistos.OutputLevel = 2
JobOptionsSvc        INFO # (29,1): Histos2.Histo2 = ["Title", -5, 5, 200]
JobOptionsSvc        INFO # (30,1): Histos2.Histo2 = ["Title", -5, 5]
JobOptionsSvc        INFO # (31,1): Histos2.Histo2 = [-5, 5]
JobOptionsSvc        INFO # (32,1): Histos2.Histo2 = [-5, 5, "Title"]
JobOptionsSvc        INFO # (33,1): Histos2.Histo2 = [-5, 5, "Title", 200]
JobOptionsSvc        INFO # (34,1): Histos2.Histo2 = [-5, 5, 200, "Title"]
JobOptionsSvc        INFO # (35,1): Histos2.Histo2 = [-5, 5, 200]
JobOptionsSvc        INFO # (41,1): ApplicationMgr.EvtMax = 50000
JobOptionsSvc        INFO # (42,1): ApplicationMgr.EvtSel = "NONE"
JobOptionsSvc        INFO # (49,1): ApplicationMgr.HistogramPersistency = "ROOT"
JobOptionsSvc        INFO # (50,1): RootHistSvc.OutputFile = "histo.root"
JobOptionsSvc        INFO # (61,1): HistogramDataSvc.Predefined1DHistos = {"/stat/Histos2/2":["TEST2", -100, 200]}
JobOptionsSvc        INFO # (65,1): HistogramDataSvc.OutputLevel = 2
JobOptionsSvc        INFO Job options successfully read in from /home/marco/Devel/workspace/Gaudi/GaudiExamples/options/Histograms.opts
ApplicationMgr    SUCCESS
====================================================================================================================================
                                                   Welcome to ApplicationMgr (GaudiCoreSvc v32r2)
                                          running on marco-XPS-13 on Thu Dec 12 14:58:30 2019
====================================================================================================================================
ApplicationMgr       INFO Application Manager Configured successfully
SimpleHistos        DEBUG Property update for OutputLevel : new value = 2
SimpleHistos        DEBUG Initialize base class GaudiCommon<Algorithm>
SimpleHistos        DEBUG could not locate CounterSummarySvc, no counter summary will be made
SimpleHistos        DEBUG List of ALL properties of GaudiHistoAlgorithm/SimpleHistos  #properties = 50
SimpleHistos        DEBUG Property ['Name': Value] =  'AutoStringIDPurgeMap':{ '/' : '=SLASH=' }
SimpleHistos        DEBUG Property ['Name': Value] =  'UseSequencialNumericAutoIDs':False
SimpleHistos        DEBUG Property ['Name': Value] =  'HeaderFor1DHistoTable':|   Title                                       |    #    |     Mean   |    RMS     |  Skewness  |  Kurtosis  |
SimpleHistos        DEBUG Property ['Name': Value] =  'ShortFormatFor1DHistoTable': | %1$-25.25s %2%
SimpleHistos        DEBUG Property ['Name': Value] =  'FormatFor1DHistoTable':| %2$-45.45s | %3$=7d |%8$11.5g | %10$-11.5g|%12$11.5g |%14$11.5g |
SimpleHistos        DEBUG Property ['Name': Value] =  'MonitorHistograms':True
SimpleHistos        DEBUG Property ['Name': Value] =  'FullDetail':False
SimpleHistos        DEBUG Property ['Name': Value] =  'HistoDir':SimpleHistos
SimpleHistos        DEBUG Property ['Name': Value] =  'HistoTopDir':
SimpleHistos        DEBUG Property ['Name': Value] =  'HistoOffSet':0
SimpleHistos        DEBUG Property ['Name': Value] =  'HistoSplitDir':False
SimpleHistos        DEBUG Property ['Name': Value] =  'HistoCheckForNaN':True
SimpleHistos        DEBUG Property ['Name': Value] =  'HistoCountersPrint':True
SimpleHistos        DEBUG Property ['Name': Value] =  'HistoPrint':True
SimpleHistos        DEBUG Property ['Name': Value] =  'HistoProduce':True
SimpleHistos        DEBUG Property ['Name': Value] =  'RequireObjects':[  ]
SimpleHistos        DEBUG Property ['Name': Value] =  'VetoObjects':[  ]
SimpleHistos        DEBUG Property ['Name': Value] =  'StatEntityList':[  ]
SimpleHistos        DEBUG Property ['Name': Value] =  'CounterList':[ '.*' ]
SimpleHistos        DEBUG Property ['Name': Value] =  'UseEfficiencyRowFormat':True
SimpleHistos        DEBUG Property ['Name': Value] =  'EfficiencyRowFormat': |*%|-48.48s|%|50t||%|10d| |%|11.5g| |(%|#9.6g| +- %|-#9.6g|)%%|   -------   |   -------   |
SimpleHistos        DEBUG Property ['Name': Value] =  'RegularRowFormat': | %|-48.48s|%|50t||%|10d| |%|11.7g| |%|#11.5g| |%|#11.5g| |%|#12.5g| |%|#12.5g| |
SimpleHistos        DEBUG Property ['Name': Value] =  'StatTableHeader': |    Counter                                      |     #     |    sum     | mean/eff^* | rms/err^*  |     min     |     max     |
SimpleHistos        DEBUG Property ['Name': Value] =  'Context':
SimpleHistos        DEBUG Property ['Name': Value] =  'TypePrint':True
SimpleHistos        DEBUG Property ['Name': Value] =  'PrintEmptyCounters':False
SimpleHistos        DEBUG Property ['Name': Value] =  'StatPrint':True
SimpleHistos        DEBUG Property ['Name': Value] =  'PropertiesPrint':False
SimpleHistos        DEBUG Property ['Name': Value] =  'ErrorsPrint':True
SimpleHistos        DEBUG Property ['Name': Value] =  'RootInTES':
SimpleHistos        DEBUG Property ['Name': Value] =  'FilterCircularDependencies':True
SimpleHistos        DEBUG Property ['Name': Value] =  'IsIOBound':False
SimpleHistos        DEBUG Property ['Name': Value] =  'NeededResources':[  ]
SimpleHistos        DEBUG Property ['Name': Value] =  'Cardinality':1
SimpleHistos        DEBUG Property ['Name': Value] =  'RegisterForContextService':True
SimpleHistos        DEBUG Property ['Name': Value] =  'MonitorService':MonitorSvc
SimpleHistos        DEBUG Property ['Name': Value] =  'Timeline':False
SimpleHistos        DEBUG Property ['Name': Value] =  'AuditStop':False
SimpleHistos        DEBUG Property ['Name': Value] =  'AuditStart':False
SimpleHistos        DEBUG Property ['Name': Value] =  'AuditFinalize':False
SimpleHistos        DEBUG Property ['Name': Value] =  'AuditExecute':False
SimpleHistos        DEBUG Property ['Name': Value] =  'AuditRestart':False
SimpleHistos        DEBUG Property ['Name': Value] =  'AuditReinitialize':False
SimpleHistos        DEBUG Property ['Name': Value] =  'AuditInitialize':False
SimpleHistos        DEBUG Property ['Name': Value] =  'AuditAlgorithms':False
SimpleHistos        DEBUG Property ['Name': Value] =  'ErrorMax':1
SimpleHistos        DEBUG Property ['Name': Value] =  'Enable':True
SimpleHistos        DEBUG Property ['Name': Value] =  'OutputLevel':2
SimpleHistos        DEBUG Property ['Name': Value] =  'ExtraOutputs':[]
SimpleHistos        DEBUG Property ['Name': Value] =  'ExtraInputs':[]
HistogramDataSvc    DEBUG Property update for OutputLevel : new value = 2
HistogramDataSvc    DEBUG Service base class initialized successfully
RootHistSvc          INFO Writing ROOT histograms to: histo.root
HistogramPersis...   INFO Added successfully Conversion service:RootHistSvc
HistogramDataSvc     INFO  Predefined 1D-Histograms:
HistogramDataSvc     INFO  Path='Histos2/2' Description ('TEST2',-100,200,100)
SimpleHistos        DEBUG GaudiHistoAlgorithm:: The histogram path is set to be 'SimpleHistos'
SimpleHistos        DEBUG input handles: 0
SimpleHistos        DEBUG output handles: 0
SimpleHistos        DEBUG Data Deps for SimpleHistos
Histos2           SUCCESS List of ALL properties of Gaudi::Examples::HistoProps/Histos2  #properties = 52
Histos2           SUCCESS Property ['Name': Value] =  'Histo2':('',-5.00000,5.00000,200)
Histos2           SUCCESS Property ['Name': Value] =  'Histo1':('Histogram1',-3.00000,3.00000,200)
Histos2           SUCCESS Property ['Name': Value] =  'AutoStringIDPurgeMap':{ '/' : '=SLASH=' }
Histos2           SUCCESS Property ['Name': Value] =  'UseSequencialNumericAutoIDs':False
Histos2           SUCCESS Property ['Name': Value] =  'HeaderFor1DHistoTable':|   Title                                       |    #    |     Mean   |    RMS     |  Skewness  |  Kurtosis  |
Histos2           SUCCESS Property ['Name': Value] =  'ShortFormatFor1DHistoTable': | %1$-25.25s %2%
Histos2           SUCCESS Property ['Name': Value] =  'FormatFor1DHistoTable':| %2$-45.45s | %3$=7d |%8$11.5g | %10$-11.5g|%12$11.5g |%14$11.5g |
Histos2           SUCCESS Property ['Name': Value] =  'MonitorHistograms':True
Histos2           SUCCESS Property ['Name': Value] =  'FullDetail':False
Histos2           SUCCESS Property ['Name': Value] =  'HistoDir':Histos2
Histos2           SUCCESS Property ['Name': Value] =  'HistoTopDir':
Histos2           SUCCESS Property ['Name': Value] =  'HistoOffSet':0
Histos2           SUCCESS Property ['Name': Value] =  'HistoSplitDir':False
Histos2           SUCCESS Property ['Name': Value] =  'HistoCheckForNaN':True
Histos2           SUCCESS Property ['Name': Value] =  'HistoCountersPrint':True
Histos2           SUCCESS Property ['Name': Value] =  'HistoPrint':True
Histos2           SUCCESS Property ['Name': Value] =  'HistoProduce':True
Histos2           SUCCESS Property ['Name': Value] =  'RequireObjects':[  ]
Histos2           SUCCESS Property ['Name': Value] =  'VetoObjects':[  ]
Histos2           SUCCESS Property ['Name': Value] =  'StatEntityList':[  ]
Histos2           SUCCESS Property ['Name': Value] =  'CounterList':[ '.*' ]
Histos2           SUCCESS Property ['Name': Value] =  'UseEfficiencyRowFormat':True
Histos2           SUCCESS Property ['Name': Value] =  'EfficiencyRowFormat': |*%|-48.48s|%|50t||%|10d| |%|11.5g| |(%|#9.6g| +- %|-#9.6g|)%%|   -------   |   -------   |
Histos2           SUCCESS Property ['Name': Value] =  'RegularRowFormat': | %|-48.48s|%|50t||%|10d| |%|11.7g| |%|#11.5g| |%|#11.5g| |%|#12.5g| |%|#12.5g| |
Histos2           SUCCESS Property ['Name': Value] =  'StatTableHeader': |    Counter                                      |     #     |    sum     | mean/eff^* | rms/err^*  |     min     |     max     |
Histos2           SUCCESS Property ['Name': Value] =  'Context':
Histos2           SUCCESS Property ['Name': Value] =  'TypePrint':True
Histos2           SUCCESS Property ['Name': Value] =  'PrintEmptyCounters':False
Histos2           SUCCESS Property ['Name': Value] =  'StatPrint':True
Histos2           SUCCESS Property ['Name': Value] =  'PropertiesPrint':True
Histos2           SUCCESS Property ['Name': Value] =  'ErrorsPrint':True
Histos2           SUCCESS Property ['Name': Value] =  'RootInTES':
Histos2           SUCCESS Property ['Name': Value] =  'FilterCircularDependencies':True
Histos2           SUCCESS Property ['Name': Value] =  'IsIOBound':False
Histos2           SUCCESS Property ['Name': Value] =  'NeededResources':[  ]
Histos2           SUCCESS Property ['Name': Value] =  'Cardinality':1
Histos2           SUCCESS Property ['Name': Value] =  'RegisterForContextService':True
Histos2           SUCCESS Property ['Name': Value] =  'MonitorService':MonitorSvc
Histos2           SUCCESS Property ['Name': Value] =  'Timeline':False
Histos2           SUCCESS Property ['Name': Value] =  'AuditStop':False
Histos2           SUCCESS Property ['Name': Value] =  'AuditStart':False
Histos2           SUCCESS Property ['Name': Value] =  'AuditFinalize':False
Histos2           SUCCESS Property ['Name': Value] =  'AuditExecute':False
Histos2           SUCCESS Property ['Name': Value] =  'AuditRestart':False
Histos2           SUCCESS Property ['Name': Value] =  'AuditReinitialize':False
Histos2           SUCCESS Property ['Name': Value] =  'AuditInitialize':False
Histos2           SUCCESS Property ['Name': Value] =  'AuditAlgorithms':False
Histos2           SUCCESS Property ['Name': Value] =  'ErrorMax':1
Histos2           SUCCESS Property ['Name': Value] =  'Enable':True
Histos2           SUCCESS Property ['Name': Value] =  'OutputLevel':3
Histos2           SUCCESS Property ['Name': Value] =  'ExtraOutputs':[]
Histos2           SUCCESS Property ['Name': Value] =  'ExtraInputs':[]
EventLoopMgr      WARNING Unable to locate service "EventSelector"
EventLoopMgr      WARNING No events will be processed from external input.
ApplicationMgr       INFO Application Manager Initialized successfully
ApplicationMgr       INFO Application Manager Started successfully
RndmGenSvc.Engine    INFO Generator engine type:CLHEP::RanluxEngine
RndmGenSvc.Engine    INFO Current Seed:1234567 Luxury:3
RndmGenSvc           INFO Using Random engine:HepRndm::Engine<CLHEP::RanluxEngine>
SimpleHistos        DEBUG Monitoring histogram 'Gaussian mean=0, sigma=1' desc = 'Gaussian mean=0, sigma=1'
SimpleHistos        DEBUG Booked 1D Histogram : ID='Gaussian mean=0, sigma=1' Path=SimpleHistos Title='Gaussian mean=0, sigma=1'
SimpleHistos        DEBUG Monitoring histogram '101' desc = 'Exponential'
SimpleHistos        DEBUG Booked 1D Histogram : ID='101' Path=SimpleHistos Title='Exponential'
SimpleHistos        DEBUG Monitoring histogram '102' desc = 'Breit'
SimpleHistos        DEBUG Booked 1D Histogram : ID='102' Path=SimpleHistos Title='Breit'
SimpleHistos        DEBUG Monitoring histogram 'poisson' desc = 'Poisson'
SimpleHistos        DEBUG Booked 1D Histogram : ID='poisson' Path=SimpleHistos Title='Poisson'
SimpleHistos        DEBUG Monitoring histogram 'subdir1/bino' desc = 'Binominal'
SimpleHistos        DEBUG Booked 1D Histogram : ID='subdir1/bino' Path=SimpleHistos Title='Binominal'
SimpleHistos        DEBUG Monitoring histogram 'subdir2/bino' desc = 'Binominal'
SimpleHistos        DEBUG Booked 1D Histogram : ID='subdir2/bino' Path=SimpleHistos Title='Binominal'
SimpleHistos        DEBUG Monitoring histogram 'Gaussian V Flat' desc = 'Gaussian V Flat'
SimpleHistos        DEBUG Booked 2D Histogram : ID='Gaussian V Flat' Path=SimpleHistos Title='Gaussian V Flat'
SimpleHistos        DEBUG Monitoring histogram 'Exponential V Flat' desc = 'Exponential V Flat'
SimpleHistos        DEBUG Booked 2D Histogram : ID='Exponential V Flat' Path=SimpleHistos Title='Exponential V Flat'
SimpleHistos        DEBUG Monitoring histogram 'binVpois' desc = 'Binom V poisson'
SimpleHistos        DEBUG Booked 2D Histogram : ID='binVpois' Path=SimpleHistos Title='Binom V poisson'
SimpleHistos        DEBUG Monitoring histogram 'expoVpois' desc = 'Expo V poisson'
SimpleHistos        DEBUG Booked 2D Histogram : ID='expoVpois' Path=SimpleHistos Title='Expo V poisson'
SimpleHistos        DEBUG Monitoring histogram '3D plot AutoID' desc = '3D plot AutoID'
SimpleHistos        DEBUG Booked 3D Histogram : ID='3D plot AutoID' Path=SimpleHistos Title='3D plot AutoID'
SimpleHistos        DEBUG Monitoring histogram '3d' desc = '3D plot ForcedID'
SimpleHistos        DEBUG Booked 3D Histogram : ID='3d' Path=SimpleHistos Title='3D plot ForcedID'
SimpleHistos        DEBUG Monitoring histogram 'Expo V Gauss 1DProf' desc = 'Expo V Gauss 1DProf'
SimpleHistos        DEBUG Booked 1D Profile Histogram : ID='Expo V Gauss 1DProf' Path=SimpleHistos Title='Expo V Gauss 1DProf'
SimpleHistos        DEBUG Monitoring histogram 'Expo V Gauss 1DProf s' desc = 'Expo V Gauss 1DProf s'
SimpleHistos        DEBUG Booked 1D Profile Histogram : ID='Expo V Gauss 1DProf s' Path=SimpleHistos Title='Expo V Gauss 1DProf s'
SimpleHistos        DEBUG Monitoring histogram 'Gauss V Flat 1DProf' desc = 'Gauss V Flat 1DProf'
SimpleHistos        DEBUG Booked 1D Profile Histogram : ID='Gauss V Flat 1DProf' Path=SimpleHistos Title='Gauss V Flat 1DProf'
SimpleHistos        DEBUG Monitoring histogram 'Gauss V Flat 1DProf S' desc = 'Gauss V Flat 1DProf S'
SimpleHistos        DEBUG Booked 1D Profile Histogram : ID='Gauss V Flat 1DProf S' Path=SimpleHistos Title='Gauss V Flat 1DProf S'
SimpleHistos        DEBUG Monitoring histogram 'Gauss V Flat 1DProf, with limits-I' desc = 'Gauss V Flat 1DProf, with limits-I'
SimpleHistos        DEBUG Booked 1D Profile Histogram : ID='Gauss V Flat 1DProf, with limits-I' Path=SimpleHistos Title='Gauss V Flat 1DProf, with limits-I'
SimpleHistos        DEBUG Monitoring histogram 'Gauss V Flat 1DProf, with limits-I  s' desc = 'Gauss V Flat 1DProf, with limits-I  s'
SimpleHistos        DEBUG Booked 1D Profile Histogram : ID='Gauss V Flat 1DProf, with limits-I  s' Path=SimpleHistos Title='Gauss V Flat 1DProf, with limits-I  s'
SimpleHistos        DEBUG Monitoring histogram 'Gauss V Flat 1DProf, with limits-II' desc = 'Gauss V Flat 1DProf, with limits-II'
SimpleHistos        DEBUG Booked 1D Profile Histogram : ID='Gauss V Flat 1DProf, with limits-II' Path=SimpleHistos Title='Gauss V Flat 1DProf, with limits-II'
SimpleHistos        DEBUG Monitoring histogram 'Gauss V Flat 1DProf, with limits-II s' desc = 'Gauss V Flat 1DProf, with limits-II s'
SimpleHistos        DEBUG Booked 1D Profile Histogram : ID='Gauss V Flat 1DProf, with limits-II s' Path=SimpleHistos Title='Gauss V Flat 1DProf, with limits-II s'
SimpleHistos        DEBUG Monitoring histogram '2dprof' desc = '2D profile1'
SimpleHistos        DEBUG Booked 2D Profile Histogram : ID='2dprof' Path=SimpleHistos Title='2D profile1'
SimpleHistos        DEBUG Monitoring histogram '321' desc = '2D profile2'
SimpleHistos        DEBUG Booked 2D Profile Histogram : ID='321' Path=SimpleHistos Title='2D profile2'
SimpleHistos        DEBUG Monitoring histogram 'varBinning/x' desc = '1D Variable Binning'
SimpleHistos        DEBUG Booked 1D Histogram : ID='varBinning/x' Path=SimpleHistos Title='1D Variable Binning'
SimpleHistos        DEBUG Monitoring histogram 'varBinning/y' desc = '2D Variable Binning'
SimpleHistos        DEBUG Booked 2D Histogram : ID='varBinning/y' Path=SimpleHistos Title='2D Variable Binning'
SimpleHistos        DEBUG Monitoring histogram 'varBinning/z' desc = '3D Variable Binning'
SimpleHistos        DEBUG Booked 3D Histogram : ID='varBinning/z' Path=SimpleHistos Title='3D Variable Binning'
SimpleHistos        DEBUG Monitoring histogram 'varBinning/a' desc = '1D Profile Variable Binning'
SimpleHistos        DEBUG Booked 1D Profile Histogram : ID='varBinning/a' Path=SimpleHistos Title='1D Profile Variable Binning'
SimpleHistos        DEBUG Monitoring histogram 'varBinning/b' desc = '2D Profile Variable Binning'
SimpleHistos        DEBUG Booked 2D Profile Histogram : ID='varBinning/b' Path=SimpleHistos Title='2D Profile Variable Binning'
SimpleHistos        DEBUG Monitoring histogram 'AutoID time test' desc = 'AutoID time test'
SimpleHistos        DEBUG Booked 1D Histogram : ID='AutoID time test' Path=SimpleHistos Title='AutoID time test'
SimpleHistos        DEBUG Monitoring histogram '1111' desc = 'Forced Numeric ID time test'
SimpleHistos        DEBUG Booked 1D Histogram : ID='1111' Path=SimpleHistos Title='Forced Numeric ID time test'
SimpleHistos        DEBUG Monitoring histogram 'test1' desc = 'Forced Alpha ID time test'
SimpleHistos        DEBUG Booked 1D Histogram : ID='test1' Path=SimpleHistos Title='Forced Alpha ID time test'
SimpleHistos         INFO GaudiHistoAlgorithm:: Filling Histograms...... Please be patient !
SimpleR7Histos    SUCCESS Filling Histograms...... Please be patient !
SimpleBoostHistos SUCCESS Filling Histograms...... Please be patient !
Histos2           WARNING Gaudi::Examples::HistoProps:: Cannot generate automatic literal ID from an empty title ! Using numeric ID instead for histogram ID
HistogramDataSvc    DEBUG  Redefine the parameters for the histogram 'Histos2/2' to be ('TEST2',-100,200,100)
ApplicationMgr       INFO Application Manager Stopped successfully
SimpleHistos      SUCCESS Booked 30 Histogram(s) : 1D=10 2D=5 3D=3 1DProf=9 2DProf=3
SimpleHistos      SUCCESS 1D histograms in directory "SimpleHistos" : 10
 | ID                        |   Title                                       |    #    |     Mean   |    RMS     |  Skewness  |  Kurtosis  |
 | 101                       | "Exponential"                                 |  50000  |    0.96518 | 0.90939    |     1.5053 |     2.2808 |
 | 102                       | "Breit"                                       |  50000  | -0.0023134 | 1.2047     |  -0.024043 |     3.6151 |
 | 1111                      | "Forced Numeric ID time test"                 |  50000  | -0.0031069 | 0.99474    |  0.0057083 |   0.010186 |
 | AutoID time test          | "AutoID time test"                            |  50000  | -0.0031069 | 0.99474    |  0.0057083 |   0.010186 |
 | Gaussian mean=0, sigma=1  | "Gaussian mean=0, sigma=1"                    |  50000  | -0.0031069 | 0.99474    |  0.0057083 |   0.010186 |
 | poisson                   | "Poisson"                                     |  50000  |     1.8071 | 1.1787     |    0.33767 |   -0.75987 |
 | subdir1/bino              | "Binominal"                                   |  50000  |     1.9169 | 1.1136     |    0.24051 |   -0.68045 |
 | subdir2/bino              | "Binominal"                                   |  50000  |     1.9169 | 1.1136     |    0.24051 |   -0.68045 |
 | test1                     | "Forced Alpha ID time test"                   |  50000  | -0.0031069 | 0.99474    |  0.0057083 |   0.010186 |
 | varBinning/x              | "1D Variable Binning"                         |  50000  |   -0.01175 | 2.8801     |   0.012929 |    -1.3182 |
SimpleHistos      SUCCESS 2D histograms in directory "SimpleHistos" : 5
 ID=Exponential V Flat         "Exponential V Flat"                             Ents/All=49806/50000<X>/sX=-0.012664/2.8792,<Y>/sY=0.96613/0.91231
 ID=Gaussian V Flat            "Gaussian V Flat"                                Ents/All=50000/50000<X>/sX=-0.01175/2.8801,<Y>/sY=-0.0061114/0.99824
 ID=binVpois                   "Binom V poisson"                                Ents/All=49940/50000<X>/sX=1.8067/1.1789,<Y>/sY=1.918/1.113
 ID=expoVpois                  "Expo V poisson"                                 Ents/All=49979/50000<X>/sX=1.8069/1.1784,<Y>/sY=0.96532/0.90952
 ID=varBinning/y               "2D Variable Binning"                            Ents/All=50000/50000<X>/sX=-0.01175/2.8801,<Y>/sY=-0.0061114/0.99824
SimpleHistos      SUCCESS 3D histograms in directory "SimpleHistos" : 3
 ID=3D plot AutoID             "3D plot AutoID"                                 Ents/All=50000/50000<X>/sX=-0.004238/0.99526,<Y>/sY=0.96404/0.90945,<Z>/sZ=-0.0020681/1.2049
 ID=3d                         "3D plot ForcedID"                               Ents/All=50000/50000<X>/sX=-0.004238/0.99526,<Y>/sY=0.96404/0.90945,<Z>/sZ=-0.0020681/1.2049
 ID=varBinning/z               "3D Variable Binning"                            Ents/All=50000/50000<X>/sX=-0.012664/2.8792,<Y>/sY=-0.0064149/0.99798,<Z>/sZ=0.96613/0.91231
SimpleHistos      SUCCESS 1D profile histograms in directory "SimpleHistos" : 9
 | ID                        |   Title                                       |    #    |     Mean   |    RMS     |  Skewness  |  Kurtosis  |
 | Expo V Gauss 1DProf       | "Expo V Gauss 1DProf"                         |  50000  | -0.0031069 | 0.99474    |     2.7047 |     48.574 |
 | Expo V Gauss 1DProf s     | "Expo V Gauss 1DProf s"                       |  50000  | -0.0031069 | 0.99474    |     2.7047 |     48.574 |
 | Gauss V Flat 1DProf       | "Gauss V Flat 1DProf"                         |  50000  |  -0.049884 | 5.7741     |          0 |         -3 |
 | Gauss V Flat 1DProf S     | "Gauss V Flat 1DProf S"                       |  50000  |  -0.049884 | 5.7741     |          0 |         -3 |
 | Gauss V Flat 1DProf, with | "Gauss V Flat 1DProf, with limits-I"          |  24891  |  -0.035175 | 5.7795     |   0.017822 |    -1.2776 |
 | Gauss V Flat 1DProf, with | "Gauss V Flat 1DProf, with limits-I  s"       |  24891  |  -0.035175 | 5.7795     |   0.017822 |    -1.2776 |
 | Gauss V Flat 1DProf, with | "Gauss V Flat 1DProf, with limits-II"         |  25109  |  -0.064465 | 5.7686     |          0 |         -3 |
 | Gauss V Flat 1DProf, with | "Gauss V Flat 1DProf, with limits-II s"       |  25109  |  -0.064465 | 5.7686     |          0 |         -3 |
 | varBinning/a              | "1D Profile Variable Binning"                 |  50000  |   -0.01175 | 2.8801     |          0 |         -3 |
SimpleHistos      SUCCESS 2D profile histograms in directory "SimpleHistos" : 3
 ID=2dprof                     "2D profile1"                                    Ents/All=50000/50000<X>/sX=-0.0030763/0.99475,<Y>/sY=0.96518/0.90939
 ID=321                        "2D profile2"                                    Ents/All=50000/50000<X>/sX=-0.0030763/0.99475,<Y>/sY=0.96518/0.90939
 ID=varBinning/b               "2D Profile Variable Binning"                    Ents/All=50000/50000<X>/sX=-0.01175/2.8801,<Y>/sY=-0.0061114/0.99824
SimpleHistos        DEBUG Finalize base class GaudiAlgorithm
SimpleHistos        DEBUG Tools to release :
SimpleHistos        DEBUG Services to release :
SimpleR7Histos       INFO Number of counters : 6
 |    Counter                                      |
 | "Binominal"                                     H     50000 |
 | "Breit"                                         H     50000 |
 | "Exponential"                                   H     50000 |
 | "Gaussian mean=0, sigma=1"                      H     50000 |
 | "Poisson"                                       H     50000 |
 | "calls"                                         |     50000 |
SimpleBoostHistos    INFO Number of counters : 10
 |    Counter                                      |
 | "Binom V poisson"                               H     50000 |
 | "Binominal"                                     H     50000 |
 | "Breit"                                         H     50000 |
 | "Expo V poisson"                                H     50000 |
 | "Exponential"                                   H     50000 |
 | "Exponential V Flat"                            H     50000 |
 | "Gaussian V Flat"                               H     50000 |
 | "Gaussian mean=0, sigma=1"                      H     50000 |
 | "Poisson"                                       H     50000 |
 | "calls"                                         |     50000 |
Histos2           SUCCESS Booked 2 Histogram(s) : 1D=2
Histos2           SUCCESS 1D histograms in directory "Histos2" : 2
 | ID                        |   Title                                       |    #    |     Mean   |    RMS     |  Skewness  |  Kurtosis  |
 | 2                         | "TEST2"                                       |  50000  | -0.0027297 | 0.99872    |   0.032975 |  -0.082321 |
 | Histogram1                | "Histogram1"                                  |  50000  |  -0.007594 | 0.98477    | -0.0050642 |   -0.17579 |
Histos2           SUCCESS Exceptions/Errors/Warnings/Infos Statistics : 0/0/1/0
Histos2           SUCCESS  #WARNINGS   = 1        Message = 'Cannot generate automatic literal ID from an empty title ! Using numeric ID instead for histogram ID'
EventLoopMgr         INFO Histograms converted successfully according to request.
*****Chrono*****     INFO ****************************************************************************************************
*****Chrono*****     INFO  The Final CPU consumption ( Chrono ) Table (ordered)
*****Chrono*****     INFO ****************************************************************************************************
1DForcedNumericID    INFO Time User   : Tot=   10 [ms] Ave/Min/Max=0.0002(+-0.0447)/    0/   10 [ms] #=49999
1DForcedAlphaID      INFO Time User   : Tot=   40 [ms] Ave/Min/Max=0.0008(+-0.0894)/    0/   10 [ms] #=49999
1DAutoID             INFO Time User   : Tot=   40 [ms] Ave/Min/Max=0.0008(+-0.0894)/    0/   10 [ms] #=49999
1DOldStyle           INFO Time User   : Tot=   50 [ms] Ave/Min/Max=0.001(+-  0.1)/    0/   10 [ms] #=49999
ChronoStatSvc        INFO Time User   : Tot= 0.93  [s]                                             #=  1
*****Chrono*****     INFO ****************************************************************************************************
ChronoStatSvc.f...   INFO  Service finalized successfully
HistogramDataSvc    DEBUG  Substituted histograms #1 :
ApplicationMgr       INFO Application Manager Finalized successfully
ApplicationMgr       INFO Application Manager Terminated successfully
